[gd_scene load_steps=5 format=2]

[ext_resource path="res://Transitions/Transition.gd" type="Script" id=1]
[ext_resource path="res://Silver.tscn" type="PackedScene" id=2]
[ext_resource path="res://Transitions/HowToCombine.png" type="Texture" id=3]

[sub_resource type="CircleShape2D" id=1]
radius = 512.0

[node name="CopperToSilver" type="Node2D"]
script = ExtResource( 1 )
Next = ExtResource( 2 )

[node name="CopperChecker" type="Area2D" parent="."]
editor/display_folded = true
collision_layer = 16
collision_mask = 2

[node name="CollisionShape2D" type="CollisionShape2D" parent="CopperChecker"]
shape = SubResource( 1 )

[node name="Indicator" type="Sprite" parent="."]
visible = false
position = Vector2( -9.76062, -177.505 )
scale = Vector2( 0.5, 0.5 )
texture = ExtResource( 3 )

