[gd_scene load_steps=4 format=2]

[ext_resource path="res://CoinSlot.gd" type="Script" id=1]
[ext_resource path="res://CoinSlot.png" type="Texture" id=2]

[sub_resource type="RectangleShape2D" id=1]
extents = Vector2( 48, 10 )

[node name="CoinSlot" type="KinematicBody2D"]
collision_layer = 4
collision_mask = 2
script = ExtResource( 1 )

[node name="Sprite" type="Sprite" parent="."]
texture = ExtResource( 2 )

[node name="CollisionPolygon2D" type="CollisionPolygon2D" parent="."]
polygon = PoolVector2Array( 64, -64, 64, 64, -64, 64, -64, -64, 0, -48 )

[node name="Sensor" type="Area2D" parent="."]
collision_layer = 4
collision_mask = 2

[node name="CollisionShape2D" type="CollisionShape2D" parent="Sensor"]
position = Vector2( 0, -48 )
shape = SubResource( 1 )

