[gd_resource type="Animation" format=2]

[resource]
resource_name = "WalkLeft"
loop = true
step = 0.05
tracks/0/type = "value"
tracks/0/path = NodePath("Background/Face/RightArm:z_index")
tracks/0/interp = 1
tracks/0/loop_wrap = true
tracks/0/imported = false
tracks/0/enabled = true
tracks/0/keys = {
"times": PoolRealArray( 0 ),
"transitions": PoolRealArray( 1 ),
"update": 1,
"values": [ 1 ]
}
tracks/1/type = "value"
tracks/1/path = NodePath("Background/Face/RightArm:rotation_degrees")
tracks/1/interp = 1
tracks/1/loop_wrap = true
tracks/1/imported = false
tracks/1/enabled = true
tracks/1/keys = {
"times": PoolRealArray( 0, 0.25, 0.5, 0.75, 1 ),
"transitions": PoolRealArray( 1, 1, 1, 1, 1 ),
"update": 0,
"values": [ -90.0, -45.0, -90.0, -135.0, -90.0 ]
}
tracks/2/type = "value"
tracks/2/path = NodePath("Background/Face/LeftArm:z_index")
tracks/2/interp = 1
tracks/2/loop_wrap = true
tracks/2/imported = false
tracks/2/enabled = true
tracks/2/keys = {
"times": PoolRealArray( 0 ),
"transitions": PoolRealArray( 1 ),
"update": 1,
"values": [ -1 ]
}
tracks/3/type = "value"
tracks/3/path = NodePath("Background/Face/LeftArm:rotation_degrees")
tracks/3/interp = 1
tracks/3/loop_wrap = true
tracks/3/imported = false
tracks/3/enabled = true
tracks/3/keys = {
"times": PoolRealArray( 0, 0.25, 0.5, 0.75, 1 ),
"transitions": PoolRealArray( 1, 1, 1, 1, 1 ),
"update": 0,
"values": [ -90.0, -135.0, -90.0, -45.0, -90.0 ]
}
tracks/4/type = "value"
tracks/4/path = NodePath("Background/Face/RightEye/Pupil:position")
tracks/4/interp = 1
tracks/4/loop_wrap = true
tracks/4/imported = false
tracks/4/enabled = true
tracks/4/keys = {
"times": PoolRealArray( 0, 0.25, 0.5, 0.75, 1 ),
"transitions": PoolRealArray( 1, 1, 1, 1, 1 ),
"update": 0,
"values": [ Vector2( -12, 3 ), Vector2( -12, -1 ), Vector2( -12, 3 ), Vector2( -12, -1 ), Vector2( -12, 3 ) ]
}
tracks/5/type = "value"
tracks/5/path = NodePath("Background/Face/LeftEye/Pupil:position")
tracks/5/interp = 1
tracks/5/loop_wrap = true
tracks/5/imported = false
tracks/5/enabled = true
tracks/5/keys = {
"times": PoolRealArray( 0, 0.25, 0.5, 0.75, 1 ),
"transitions": PoolRealArray( 1, 1, 1, 1, 1 ),
"update": 0,
"values": [ Vector2( -12, 3 ), Vector2( -12, -1 ), Vector2( -12, 3 ), Vector2( -12, -1 ), Vector2( -12, 3 ) ]
}
tracks/6/type = "value"
tracks/6/path = NodePath("Background/Face:position")
tracks/6/interp = 1
tracks/6/loop_wrap = true
tracks/6/imported = false
tracks/6/enabled = true
tracks/6/keys = {
"times": PoolRealArray( 0, 0.25, 0.5, 0.75, 1 ),
"transitions": PoolRealArray( 1, 1, 1, 1, 1 ),
"update": 0,
"values": [ Vector2( -4, 0 ), Vector2( -4, 4 ), Vector2( -4, 0 ), Vector2( -4, 4 ), Vector2( -4, 0 ) ]
}
tracks/7/type = "value"
tracks/7/path = NodePath("Background/Face/LeftLeg:rotation_degrees")
tracks/7/interp = 1
tracks/7/loop_wrap = true
tracks/7/imported = false
tracks/7/enabled = true
tracks/7/keys = {
"times": PoolRealArray( 0, 0.25, 0.3, 0.5, 0.6, 0.75, 0.8, 1 ),
"transitions": PoolRealArray( 1, 1, 1, 1, 1, 1, 1, 1 ),
"update": 0,
"values": [ -90.0, -45.0, -45.0, -135.0, -150.0, -135.0, -135.0, -90.0 ]
}
tracks/8/type = "value"
tracks/8/path = NodePath("Background/Face/RightLeg:rotation_degrees")
tracks/8/interp = 1
tracks/8/loop_wrap = true
tracks/8/imported = false
tracks/8/enabled = true
tracks/8/keys = {
"times": PoolRealArray( 0, 0.1, 0.25, 0.3, 0.5, 0.75, 0.8, 1 ),
"transitions": PoolRealArray( 1, 1, 1, 1, 1, 1, 1, 1 ),
"update": 0,
"values": [ -135.0, -150.0, -135.0, -135.0, -90.0, -45.0, -45.0, -135.0 ]
}
tracks/9/type = "value"
tracks/9/path = NodePath("Background/Face/LeftLeg/LeftFoot:scale")
tracks/9/interp = 1
tracks/9/loop_wrap = true
tracks/9/imported = false
tracks/9/enabled = true
tracks/9/keys = {
"times": PoolRealArray( 0 ),
"transitions": PoolRealArray( 1 ),
"update": 0,
"values": [ Vector2( 1, 1 ) ]
}
tracks/10/type = "value"
tracks/10/path = NodePath("Background/Face/LeftLeg/LeftFoot:rotation_degrees")
tracks/10/interp = 1
tracks/10/loop_wrap = true
tracks/10/imported = false
tracks/10/enabled = true
tracks/10/keys = {
"times": PoolRealArray( 0, 0.1, 0.25, 0.3, 0.5, 0.6, 0.75, 0.8, 1 ),
"transitions": PoolRealArray( 1, 1, 1, 1, 1, 1, 1, 1, 1 ),
"update": 0,
"values": [ 105.0, 90.0, 60.0, 30.0, 105.0, 90.0, 120.0, 120.0, 105.0 ]
}
tracks/11/type = "value"
tracks/11/path = NodePath("Background/Face/RightLeg/RightFoot:rotation_degrees")
tracks/11/interp = 1
tracks/11/loop_wrap = true
tracks/11/imported = false
tracks/11/enabled = true
tracks/11/keys = {
"times": PoolRealArray( 0, 0.1, 0.25, 0.3, 0.5, 0.6, 0.75, 0.8, 1 ),
"transitions": PoolRealArray( 1, 1, 1, 1, 1, 1, 1, 1, 1 ),
"update": 0,
"values": [ 105.0, 90.0, 120.0, 120.0, 105.0, 90.0, 60.0, 30.0, 105.0 ]
}
tracks/12/type = "value"
tracks/12/path = NodePath("Background/Face/RightLeg:z_index")
tracks/12/interp = 1
tracks/12/loop_wrap = true
tracks/12/imported = false
tracks/12/enabled = true
tracks/12/keys = {
"times": PoolRealArray( 0 ),
"transitions": PoolRealArray( 1 ),
"update": 1,
"values": [ 1 ]
}
tracks/13/type = "value"
tracks/13/path = NodePath("Background/Face/RightLeg/RightFoot:scale")
tracks/13/interp = 1
tracks/13/loop_wrap = true
tracks/13/imported = false
tracks/13/enabled = true
tracks/13/keys = {
"times": PoolRealArray( 0 ),
"transitions": PoolRealArray( 1 ),
"update": 0,
"values": [ Vector2( -1, 1 ) ]
}
tracks/14/type = "value"
tracks/14/path = NodePath("Background/Face/LeftLeg:z_index")
tracks/14/interp = 1
tracks/14/loop_wrap = true
tracks/14/imported = false
tracks/14/enabled = true
tracks/14/keys = {
"times": PoolRealArray( 0 ),
"transitions": PoolRealArray( 1 ),
"update": 1,
"values": [ -1 ]
}

