[gd_scene load_steps=4 format=2]

[ext_resource path="res://Stuff/rSwitch.gd" type="Script" id=1]
[ext_resource path="res://Stuff/SilverPlate.png" type="Texture" id=2]

[sub_resource type="RectangleShape2D" id=1]
extents = Vector2( 56, 2 )

[node name="SSwitch" type="StaticBody2D"]
script = ExtResource( 1 )

[node name="Sprite" type="Sprite" parent="."]
texture = ExtResource( 2 )

[node name="CollisionPolygon2D" type="CollisionPolygon2D" parent="."]
position = Vector2( -0.920128, 41.2218 )
polygon = PoolVector2Array( 56, 16, 64, 23, -64, 23, -56, 16 )

[node name="Sensor" type="Area2D" parent="."]

[node name="CollisionShape2D" type="CollisionShape2D" parent="Sensor"]
position = Vector2( 0, 55 )
shape = SubResource( 1 )

